@startuml
!define LIGHTBLUE
!includeurl https://raw.githubusercontent.com/Drakemor/RedDress-PlantUML/master/style.puml

hide footbox
participant ":testController_US02_1"

create "controller_us02_1:Controller_US02_1"

":testController_US02_1" [#blue]-> "controller_us02_1:Controller_US02_1": create


participant "JoaoInCharge:Person"

":testController_US02_1" [#blue]-> "controller_us02_1:Controller_US02_1": boolean <b>result</b> = createGroupByPersonAsPersonInCharge \n(personInCharge, denomination, description,\n dateOfCreation)

"controller_us02_1:Controller_US02_1" [#blue]-> "JoaoInCharge:Person": createGroupAsPeopleInCharge\n(denomination, personInCharge,\n description, dateOfCreation)

"JoaoInCharge:Person" [#blue]-> "groupList:GroupList":createGroupAsPeopleInCharge(String denomination,\nPerson personIncharge, String description, LocalDate dateOfCreation)

create "group:Group"
"groupList:GroupList" [#blue]-> "group:Group": create
"groupList:GroupList" [#blue]-> "groupList:GroupList": add(newGroup)


'end box
participant "expectedGroupList:GroupList"


":testController_US02_1" [#blue]-> ":testController_US02_1": assertEquals\n(true, <b>result</b>)
":testController_US02_1" [#blue]-> ":testController_US02_1": assertEquals\n(expectedGroupList, \nJoaoInCharge.listOfMyGroups())


@enduml