@startuml
!define LIGHTBLUE
!includeurl https://raw.githubusercontent.com/Drakemor/RedDress-PlantUML/master/style.puml

hide footbox
participant ":testController_US019"

create "controller_US019:Controller_US019"

":testController_US019" [#blue]-> "controller_US019:Controller_US019": create

participant "personMaria:Person"
create "ledger:Ledger"
"personMaria:Person" [#blue]-> "ledger:Ledger":create

":testController_US019" [#blue]-> "controller_US019:Controller_US019": List<Transaction> <b>searchResult</b> =\ngetPersonAndGroupRecordsBetweenTwoDates\n(person, dateOfBeginning, dateOfEnding)

"controller_US019:Controller_US019" [#blue]-> "personMaria:Person": getPersonRecordsBetweenTwoDates\n(person, dateOfBeginning, dateOfEnding)
"personMaria:Person" [#blue]-> "ledger:Ledger":getRecordsBetweenTwoDates\n(dateOfBeginning, dateOfEnding)

"controller_US019:Controller_US019" [#blue]-> "personMaria:Person": getPersonAndGroupRecordsBetweenTwoDates\n(dateOfBeginning, dateOfEnding)
'"controller_US019:Controller_US019" [#blue]-> "personMaria:Person": getPersonRecordsBetweenTwoDates\n(person, dateOfBeginning, dateOfEnding)
participant "groupRunnersMaria:Group"
create "ledgerRunners:Ledger"
"groupRunnersMaria:Group" [#blue]-> "ledgerRunners:Ledger":create

"personMaria:Person" [#blue]-> "groupRunnersMaria:Group": getRecordsBetweenTwoDates\n(group, dateOfBeginning, dateOfEnding)
participant "groupFriendsMaria:Group"
create "ledgerFriends:Ledger"
"groupFriendsMaria:Group" [#blue]-> "ledgerFriends:Ledger":create
"groupRunnersMaria:Group" [#blue]-> "ledgerRunners:Ledger": getRecordsBetweenTwoDates\n(dateOfBeginning, dateOfEnding)
"personMaria:Person" [#blue]-> "groupFriendsMaria:Group": getRecordsBetweenTwoDates\n(dateOfBeginning, dateOfEnding)
"groupFriendsMaria:Group" [#blue]-> "ledgerFriends:Ledger": getRecordsBetweenTwoDates\n(dateOfBeginning, dateOfEnding)

'end box
participant "expectedRegists:List<Transaction>"

":testController_US019" [#blue]-> ":testController_US019": assertEquals(expectedRegists, <b>searchResult</b>))


@enduml