@startuml
!define LIGHTBLUE
!includeurl https://raw.githubusercontent.com/Drakemor/RedDress-PlantUML/master/style.puml
scale 1
hide footbox
participant ":Controller_US08_1Test"
create "Controller_US08.1:Controller_US8.1"
":Controller_US08_1Test" [#blue]-> "Controller_US08.1:Controller_US8.1" : create
":Controller_US08_1Test" [#blue]-> "Controller_US08.1:Controller_US8.1" : boolean <b>result</b> = createGroupTransactionAsMember\n(schoolFriendsGroup, memberJoana, leisure, transactionType, \n transactionDescription, transactionAmount, transactionDate, \n debitAccount, creditAccount)
participant "schoolFriendsGroup:Group"
create "ledger:Ledger"
"schoolFriendsGroup:Group" [#blue]-> "ledger:Ledger" : create
"Controller_US08.1:Controller_US8.1" [#blue]-> "schoolFriendsGroup:Group" : createAndAddTransactionWithDate(leisure, \n transactionType, transactionDescription, transactionAmount, \n transactionDate, debitAccount, creditAccount)
"schoolFriendsGroup:Group" [#blue]-> "ledger:Ledger" : createAndAddTransactionWithDate(leisure, \n transactionType, transactionDescription, transactionAmount, \n transactionDate, debitAccount, creditAccount)
create "newTransaction:Transaction"
"ledger:Ledger" [#blue]-> "newTransaction:Transaction" : create
"ledger:Ledger" [#blue]-> "ledger:Ledger" : add(newTransaction)
participant "schoolFriendsExpectedLedger:Ledger"
":Controller_US08_1Test" [#blue]-> ":Controller_US08_1Test" : assertEquals(true, <b>result</b>)
":Controller_US08_1Test" [#blue]-> ":Controller_US08_1Test" : assertEquals(schoolFriendsExpectedLedger, \n schoolFriendsGroup.getLedger())
@enduml





