@startuml
!define LIGHTBLUE
!includeurl https://raw.githubusercontent.com/Drakemor/RedDress-PlantUML/master/style.puml
hide footbox
participant ":testController_US018"
create "ledger:Ledger"
"groupHenriqueSalary:Group" [#blue]-> "ledger:Ledger": create
'box "Users" #LightBlue
create "controller_us018:Controller_US018"
":testController_US018" [#blue]-> "controller_us018:Controller_US018": create
participant "personHenrique:Person"
participant "groupHenriqueSalary:Group"
participant "ledger:Ledger"
'participant "categorySalary:Category"
'participant "accountDebit:Account"
'participant "accountCredit:Account"
'participant "accountCredit:Transaction"
'participant "accountCredit:Transaction"
'end box
'participant "categories:CategoryList"
'participant "category:Category"
'"controller_us018:Controller_US018" [#blue]-> "categories:CategoryList": create
":testController_US018" [#blue]-> "controller_us018:Controller_US018":double <b>result</b> = getAmountBetweenTwoDates(groupHenriqueSalary,\npersonHenrique, dateOfBeggining, dateOfEnding)
"controller_us018:Controller_US018" [#blue]-> "groupHenriqueSalary:Group": getAmountBetweenTwoDates(groupHenriqueSalary,\n dateOfBeggining, dateOfEnding)
"groupHenriqueSalary:Group" [#blue]-> "ledger:Ledger": getAmountBetweenTwoDates(dateOfBeginning,\n dateOfEnding)
'create "category:Category"
'"categories:CategoryList" [#blue]-> "category:Category": create
'participant "ac1:Account"
'        "controller_us018:Controller_US018" [#blue]-> "denominationFood:CategoryList": personJoana=ew/create
'participant "denominationFood:CategoryList"
'
'create "ac1:Account"
'        "controller_us018:Controller_US018" [#blue]-> "ac1:Account": new/create
'        "controller_us018:Controller_US018" [#blue]-> "denominationFood:CategoryList": ADDACOUNT
'"controller_us018:Controller_US018" -> "controller_us018:Controller_US018" : addCategory
'"categories:CategoryList" -> "categories:CategoryList" : add(category)
participant "expected:double"
":testController_US018" [#blue]-> ":testController_US018":  assertEquals(expected,\n <b>result</b>);
'"controller_us018:Controller_US018" [#blue]--> ":testController_US018":
'"expectedCategoryList:CategoryList" [#blue]--> ":testController_US018": AssertTrue()
'return AssertTrue()
@enduml