@startuml

scale 1.35

'__Layout
skinparam class {
BackgroundColor #F2F2F2
ArrowColor #404040
BorderColor #7F7F7F
}

skinparam classAttributeIconSize 0

left to right direction

'__Title
title
PERSONAL FINANCE MANAGEMENT

<u>US001</u> <b>Check if 2 people are siblings</b>
Design Class Diagram - <i>Sprint 7</i>

end title


'__Design classes

class US001CheckIfSiblingsController {
+ checkIfBrother()
}

class US001CheckIfSiblingsService {
+ checkIfSiblings()
}

class BooleanDTOAssembler {
+createDTOFromPrimitiveTypes();
}

class BooleanDTO {
+BooleanDTO();
}

class CheckIfSiblingsDTOAssembler {
+createDTOFromPrimitiveTypes();
}

class CheckIfSiblingsDTO {
+CheckIfSiblingsDTO();
}

interface IPersonRepository {
}

class PersonRepository {
- personRepo : List <Person>

+ getPersonByID()
(...)
}

package AggregatePerson <<Folder>>{
class Person {
- Siblings : List <Person>
+ verifySiblingsOrHalfSiblings()
(...)
}
}

'__Associations
'__Dependency relationships

'Send info to the service using a checkIfSiblingsDTO

US001CheckIfSiblingsController ..> US001CheckIfSiblingsService
US001CheckIfSiblingsController..> CheckIfSiblingsDTOAssembler
CheckIfSiblingsDTOAssembler ..>CheckIfSiblingsDTO

'Get info from PersonRepository using the info received from the US001CheckIfSiblingsController

US001CheckIfSiblingsService..> IPersonRepository
IPersonRepository <|.. PersonRepository
PersonRepository "1" *--> "*" Person

'Send info to the US001CheckIfSiblingsController using a BooleanDTO

US001CheckIfSiblingsService ..> BooleanDTOAssembler
BooleanDTOAssembler ..> BooleanDTO

@enduml