@startuml
!define LIGHTBLUE

'__Title
title <b>"Personal Finance Management"</b>\nSequence Diagram US003AddPersonToGroupControllerREST
hide footbox


participant ":HTTP Client"
participant "Tomcat (Web Server)"
participant ":US003AddPersonToGroupControllerREST"

ref over ":HTTP Client", "Tomcat (Web Server)", ":US003AddPersonToGroupControllerREST" : SD_Tomcat_Generic Processing Representation\n

":US003AddPersonToGroupControllerREST" -[hidden]-> ":US003AddPersonToGroupControllerREST"


activate ":US003AddPersonToGroupControllerREST" #34b7eb

participant "AddPersonToGroupDTOAssembler"

participant "us003AddPersonToGroupService : \nUS003AddPersonToGroupService"

":US003AddPersonToGroupControllerREST" [#blue]->  "AddPersonToGroupDTOAssembler" : createDataTransferObject_Primitives\n(info.getEmail(), groupDenomination)
activate "AddPersonToGroupDTOAssembler" #34b7eb
create "addPersonToGroupDTO : \nAddPersonToGroupDTO"
"AddPersonToGroupDTOAssembler" [#blue]-->  "addPersonToGroupDTO : \nAddPersonToGroupDTO" : create(info.getEmail(), groupDenomination)
return <b>addPersonToGroupDTO</b>
deactivate "AddPersonToGroupDTOAssembler"


":US003AddPersonToGroupControllerREST" [#blue]->  "us003AddPersonToGroupService : \nUS003AddPersonToGroupService" : addPersonToGroup(addPersonToGroupDTO)

participant "PersonID"


activate "us003AddPersonToGroupService : \nUS003AddPersonToGroupService" #34b7eb

"us003AddPersonToGroupService : \nUS003AddPersonToGroupService" [#blue]->  "PersonID" : createPersonID(personEmailFromDTO)
activate "PersonID" #34b7eb
create "personID : \nPersonID"
"PersonID" [#blue]-->  "personID : \nPersonID" : create\n(personEmailFromDTO)
return <b>personID</b>
deactivate "personID : \nPersonID"

"us003AddPersonToGroupService : \nUS003AddPersonToGroupService" [#blue]->  "addPersonToGroupDTO" : getEmail()
activate "addPersonToGroupDTO" #34b7eb
return String <b>emailFromDTO</b>
deactivate "addPersonToGroupDTO"


participant "GroupID"


"us003AddPersonToGroupService : \nUS003AddPersonToGroupService" [#blue]->  "addPersonToGroupDTO" : getGroupDenomination()
activate "addPersonToGroupDTO" #34b7eb
return String <b>groupDenominationFromDTO</b>
deactivate "addPersonToGroupDTO"

"us003AddPersonToGroupService : \nUS003AddPersonToGroupService" [#blue]->  "GroupID" : createGroupID(groupDenominationFromDTO)
activate "GroupID" #34b7eb
create "groupID : \nGroupID"
"GroupID" [#blue]-->  "groupID : \nGroupID" : create\n(groupDenominationFromDTO)
return <b>groupID</b>
deactivate "groupID : \nGroupID"



"us003AddPersonToGroupService : \nUS003AddPersonToGroupService" [#blue]-> "personRepository : PersonRepository" : existPerson(personID)
activate "personRepository : PersonRepository" #34b7eb
return boolean <b>personExists</b>


participant "groupRepository : GroupRepository"

"us003AddPersonToGroupService : \nUS003AddPersonToGroupService" [#blue]-> "groupRepository : GroupRepository" : existGroup(groupID)
activate "groupRepository : GroupRepository" #34b7eb
return boolean <b>groupExists</b>

"us003AddPersonToGroupService : \nUS003AddPersonToGroupService" [#blue]-> "groupRepository : GroupRepository" : findGroupByID(groupID)
activate "groupRepository : GroupRepository" #34b7eb
return Group <b>group</b>

participant "group: Group"

"us003AddPersonToGroupService : \nUS003AddPersonToGroupService" [#blue]-> "group: Group": isPersonAlreadyMember(personID)
activate "group: Group" #34b7eb
return boolean <b>isPersonAlreadyMember</b>


participant "GroupDTOAssembler"

"us003AddPersonToGroupService : \nUS003AddPersonToGroupService" [#blue]->  "GroupDTOAssembler" : createDTOFromDomainObject(Denomination denomination, Description description, DateOfCreation dateOfCreation)
activate "GroupDTOAssembler" #34b7eb
create "groupDTO : \nGroupDTO"
"GroupDTOAssembler" [#blue]-->  "groupDTO : \nGroupDTO" : create\n(Denomination denomination, Description description, DateOfCreation dateOfCreation)
return <b>groupDTO</b>
deactivate "groupDTO : \nGroupDTO"


":US003AddPersonToGroupControllerREST" <-- "us003AddPersonToGroupService : \nUS003AddPersonToGroupService": <b>grouppDTO</b>
deactivate "us003AddPersonToGroupService : \nUS003AddPersonToGroupService"


deactivate ":US003AddPersonToGroupControllerREST"

ref over ":HTTP Client", "Tomcat (Web Server)", ":US003AddPersonToGroupControllerREST" : SD_Tomcat_Generic Processing Representation\n


@enduml