@startuml
!define LIGHTBLUE
'!includeurl https://raw.githubusercontent.com/Drakemor/RedDress-PlantUML/master/style.puml

'__Title
title <b>"Personal Finance Management"</b>\nSequence Diagram US001CheckIfSiblingsService

hide footbox

participant ":HTTP Client"
participant "Tomcat (Web Server)"
participant ":US001_CheckIfSiblingsControllerRest"

ref over ":HTTP Client", "Tomcat (Web Server)", ":US001_CheckIfSiblingsControllerRest" : SD_Tomcat_Generic Processing Representation\n

":US001_CheckIfSiblingsControllerRest" -[hidden]-> ":US001_CheckIfSiblingsControllerRest"

activate ":US001_CheckIfSiblingsControllerRest" #34b7eb

participant "booleanDTOAssembler \n:BooleanDTOAssembler"
participant "us001CheckIfSiblingsService\n :US001CheckIfSiblingsService"
":US001_CheckIfSiblingsControllerRest" [#blue]-->  "us001CheckIfSiblingsService \n:US001CheckIfSiblingsService" : <b>checkIfSiblings</b>(checkIfSiblingsDTO)
activate "us001CheckIfSiblingsService \n:US001CheckIfSiblingsService" #34b7eb

participant "PersonID"

"us001CheckIfSiblingsService \n:US001CheckIfSiblingsService" [#blue]-> "PersonID" : PersonID.createPersonID(CheckIfSiblingsDTO)
'create "hulkID \n:PersonID"
activate "PersonID" #34b7eb
ref over "PersonID" : SD_PersonID
'"PersonID" [#blue]-> "hulkID \n:PersonID" : new PersonID(checkIfSiblingsDTO.getEmail()
return hulkID
deactivate "PersonID" #34b7eb

"us001CheckIfSiblingsService \n:US001CheckIfSiblingsService" [#blue]-> "PersonID" : PersonID.createPersonID(CheckIfSiblingsDTO)
'create "wolverineID \n:PersonID"
activate "PersonID" #34b7eb
ref over "PersonID" : SD_PersonID
'"PersonID" [#blue]-> "wolverineID \n:PersonID" : new PersonID(CheckIfSiblingsDTO.getSiblingEmail()
return wolverineID
deactivate "PersonID" #34b7eb


participant "personRepository \n:PersonRepository"
participant "hulk \n:Person"

"us001CheckIfSiblingsService \n:US001CheckIfSiblingsService" [#blue]-> "personRepository \n:PersonRepository" : findPersonByPersonID(hulkID)
activate "personRepository \n:PersonRepository" #34b7eb
return hulk

"us001CheckIfSiblingsService \n:US001CheckIfSiblingsService" [#blue]-> "personRepository \n:PersonRepository" :findPersonByPersonID(wolverinehulkID)
activate "personRepository \n:PersonRepository" #34b7eb
return wolverine

alt hulk == null

"us001CheckIfSiblingsService \n:US001CheckIfSiblingsService" [#blue]-> "personRepository \n:PersonRepository" : <b>verifyIfSibling</b>  = verifySiblingsOrHalfSiblings(wolverine);
activate "personRepository \n:PersonRepository" #34b7eb
return isSibling, msg.SUCCESS
deactivate "hulk \n:Person"


else wolverine == null

"us001CheckIfSiblingsService \n:US001CheckIfSiblingsService" [#blue]-> "personRepository \n:PersonRepository" : <b>verifyIfSibling</b>  = verifySiblingsOrHalfSiblings(wolverine);
activate "personRepository \n:PersonRepository" #34b7eb
return  isSibling, msg.FAIL
deactivate "hulk \n:Person"

end

alt verifySiblingsOrHalfSiblings(wolverine) == true

"us001CheckIfSiblingsService \n:US001CheckIfSiblingsService" [#blue]-> "hulk \n:Person" : <b>verifyIfSibling</b>  = verifySiblingsOrHalfSiblings(wolverine);
activate "hulk \n:Person" #34b7eb
return isSibling, msg.NOT_EXIST_1
deactivate "hulk \n:Person"


else verifySiblingsOrHalfSiblings(wolverine) == false

"us001CheckIfSiblingsService \n:US001CheckIfSiblingsService" [#blue]-> "hulk \n:Person" : <b>verifyIfSibling</b>  = verifySiblingsOrHalfSiblings(wolverine);
activate "hulk \n:Person" #34b7eb
return isSibling, msg.NOT_EXIST_2
deactivate "hulk \n:Person"
end


"booleanDTOAssembler \n:BooleanDTOAssembler"  <-[#blue] "us001CheckIfSiblingsService \n:US001CheckIfSiblingsService" : BooleanDTOAssembler.createDTOFromPrimitiveTypes\n(isSibling, msg);
ref over "booleanDTOAssembler \n:BooleanDTOAssembler"
BooleanDTOAssembler
Sequence Diagram
end ref
deactivate "us001CheckIfSiblingsService \n:US001CheckIfSiblingsService"

":US001_CheckIfSiblingsControllerRest"  <-[#blue] "booleanDTOAssembler \n:BooleanDTOAssembler" : BooleanDTO <b>result</b>

deactivate ":US001_CheckIfSiblingsControllerRest"


@enduml