@startuml

scale 1.35

'__Layout
skinparam class {
BackgroundColor #F2F2F2
ArrowColor #404040
BorderColor #7F7F7F
}

skinparam classAttributeIconSize 0

left to right direction

'__Title
title <b>"Personal Finance Management"</b>\nDesign Class Diagram US07

'__Design classes

class Controller_US07 {
- service_US07 : Service_US07
+ createAccountAsPeopleInCharge()
}

class US07_Assembler {
+ createDTOFromPrimitiveTypes()
}

class US07_DTO {
- personEmail : String
- groupDenomination : String
- AccountDenomination : String
-AccountDescription : String
+ getAccountDenomination()
+ getAccountDescription()
+ getGroupDenomination()
+ getPersonEmail()
}

class Service_US07 {
- accountRepository : IAccountRepository
- groupRepository : IGroupRepository
+ createAccountAsPeopleInCharge()
}

interface IAccountRepository {
}

class AccountRepository {
- accounts : List<Account>
+ existsAccount()
+ saveAccount()
}

package "Aggregate Account" <<Folder>> {
class Account {
- accountID : AccountID
+ CreateAccountGroup()
(...)
}
}

interface IGroupRepository {
}

class GroupRepository {
- groupRepo : List<Group>
+ findGroupByGroupID()
}

package "Aggregate Group" <<Folder>> {
class Group {
- groupID : GroupID
+ isPersonInCharge()
+ checkIfGroupHasAccount()
+ addAccount()
(...)
}
}

'__Associations
'__Dependency relationships

Controller_US07 -down-> Service_US07
Controller_US07 --> US07_Assembler
US07_Assembler --> US07_DTO
Service_US07 ..> IAccountRepository
Service_US07 ..> IGroupRepository
IAccountRepository <|.. AccountRepository
IGroupRepository <|.. GroupRepository
AccountRepository "1" *-- "*" Account
GroupRepository "1" *-- "*" Group


@enduml